^C:\USERS\SIARARISA\SOURCE\REPOS\LESSON_ENGINETEMPLATE\LESSON_ENGINETEMPLATE\GRAPHICS.CPP|C:\USERS\SIARARISA\SOURCE\REPOS\LESSON_ENGINETEMPLATE\LESSON_ENGINETEMPLATE\MAIN.CPP|C:\USERS\SIARARISA\SOURCE\REPOS\LESSON_ENGINETEMPLATE\LESSON_ENGINETEMPLATE\MYGAMEENGINE.CPP
C:\USERS\SIARARISA\SOURCE\REPOS\LESSON_ENGINETEMPLATE\LESSON_ENGINETEMPLATE\DEBUG\VC141.PDB
C:\USERS\SIARARISA\SOURCE\REPOS\LESSON_ENGINETEMPLATE\LESSON_ENGINETEMPLATE\DEBUG\VC141.IDB
C:\USERS\SIARARISA\SOURCE\REPOS\LESSON_ENGINETEMPLATE\LESSON_ENGINETEMPLATE\DEBUG\MYGAMEENGINE.OBJ
C:\USERS\SIARARISA\SOURCE\REPOS\LESSON_ENGINETEMPLATE\LESSON_ENGINETEMPLATE\DEBUG\MAIN.OBJ
C:\USERS\SIARARISA\SOURCE\REPOS\LESSON_ENGINETEMPLATE\LESSON_ENGINETEMPLATE\DEBUG\GRAPHICS.OBJ
^C:\USERS\SIARARISA\SOURCE\REPOS\LESSON_ENGINETEMPLATE\LESSON_ENGINETEMPLATE\GAMEOBJECT.CPP|C:\USERS\SIARARISA\SOURCE\REPOS\LESSON_ENGINETEMPLATE\LESSON_ENGINETEMPLATE\GRAPHICS.CPP|C:\USERS\SIARARISA\SOURCE\REPOS\LESSON_ENGINETEMPLATE\LESSON_ENGINETEMPLATE\MAIN.CPP|C:\USERS\SIARARISA\SOURCE\REPOS\LESSON_ENGINETEMPLATE\LESSON_ENGINETEMPLATE\MYGAMEENGINE.CPP
C:\USERS\SIARARISA\SOURCE\REPOS\LESSON_ENGINETEMPLATE\LESSON_ENGINETEMPLATE\DEBUG\VC141.PDB
C:\USERS\SIARARISA\SOURCE\REPOS\LESSON_ENGINETEMPLATE\LESSON_ENGINETEMPLATE\DEBUG\VC141.IDB
C:\USERS\SIARARISA\SOURCE\REPOS\LESSON_ENGINETEMPLATE\LESSON_ENGINETEMPLATE\DEBUG\MYGAMEENGINE.OBJ
C:\USERS\SIARARISA\SOURCE\REPOS\LESSON_ENGINETEMPLATE\LESSON_ENGINETEMPLATE\DEBUG\GRAPHICS.OBJ
C:\USERS\SIARARISA\SOURCE\REPOS\LESSON_ENGINETEMPLATE\LESSON_ENGINETEMPLATE\DEBUG\GAMEOBJECT.OBJ
C:\USERS\SIARARISA\SOURCE\REPOS\LESSON_ENGINETEMPLATE\LESSON_ENGINETEMPLATE\DEBUG\MAIN.OBJ
^C:\USERS\SIARARISA\SOURCE\REPOS\LESSON_ENGINETEMPLATE\LESSON_ENGINETEMPLATE\GAMEOBJECT.CPP|C:\USERS\SIARARISA\SOURCE\REPOS\LESSON_ENGINETEMPLATE\LESSON_ENGINETEMPLATE\GRAPHICS.CPP|C:\USERS\SIARARISA\SOURCE\REPOS\LESSON_ENGINETEMPLATE\LESSON_ENGINETEMPLATE\MAIN.CPP|C:\USERS\SIARARISA\SOURCE\REPOS\LESSON_ENGINETEMPLATE\LESSON_ENGINETEMPLATE\MYGAMEENGINE.CPP|C:\USERS\SIARARISA\SOURCE\REPOS\LESSON_ENGINETEMPLATE\LESSON_ENGINETEMPLATE\VECTOR3.CPP
C:\USERS\SIARARISA\SOURCE\REPOS\LESSON_ENGINETEMPLATE\LESSON_ENGINETEMPLATE\DEBUG\VC141.PDB
C:\USERS\SIARARISA\SOURCE\REPOS\LESSON_ENGINETEMPLATE\LESSON_ENGINETEMPLATE\DEBUG\VC141.IDB
C:\USERS\SIARARISA\SOURCE\REPOS\LESSON_ENGINETEMPLATE\LESSON_ENGINETEMPLATE\DEBUG\MYGAMEENGINE.OBJ
C:\USERS\SIARARISA\SOURCE\REPOS\LESSON_ENGINETEMPLATE\LESSON_ENGINETEMPLATE\DEBUG\GRAPHICS.OBJ
C:\USERS\SIARARISA\SOURCE\REPOS\LESSON_ENGINETEMPLATE\LESSON_ENGINETEMPLATE\DEBUG\GAMEOBJECT.OBJ
C:\USERS\SIARARISA\SOURCE\REPOS\LESSON_ENGINETEMPLATE\LESSON_ENGINETEMPLATE\DEBUG\VECTOR3.OBJ
C:\USERS\SIARARISA\SOURCE\REPOS\LESSON_ENGINETEMPLATE\LESSON_ENGINETEMPLATE\DEBUG\MAIN.OBJ
^C:\USERS\SIARARISA\SOURCE\REPOS\LESSON_ENGINETEMPLATE\LESSON_ENGINETEMPLATE\MAIN.CPP
C:\USERS\SIARARISA\SOURCE\REPOS\LESSON_ENGINETEMPLATE\LESSON_ENGINETEMPLATE\DEBUG\VC141.PDB
^C:\USERS\SIARARISA\SOURCE\REPOS\LESSON_ENGINETEMPLATE\LESSON_ENGINETEMPLATE\VECTOR3.CPP
C:\USERS\SIARARISA\SOURCE\REPOS\LESSON_ENGINETEMPLATE\LESSON_ENGINETEMPLATE\DEBUG\VC141.PDB
^C:\USERS\SIARARISA\SOURCE\REPOS\LESSON_ENGINETEMPLATE\LESSON_ENGINETEMPLATE\GAMEOBJECT.CPP
C:\USERS\SIARARISA\SOURCE\REPOS\LESSON_ENGINETEMPLATE\LESSON_ENGINETEMPLATE\DEBUG\VC141.PDB
^C:\USERS\SIARARISA\SOURCE\REPOS\LESSON_ENGINETEMPLATE\LESSON_ENGINETEMPLATE\GRAPHICS.CPP
C:\USERS\SIARARISA\SOURCE\REPOS\LESSON_ENGINETEMPLATE\LESSON_ENGINETEMPLATE\DEBUG\VC141.PDB
^C:\USERS\SIARARISA\SOURCE\REPOS\LESSON_ENGINETEMPLATE\LESSON_ENGINETEMPLATE\MYGAMEENGINE.CPP
C:\USERS\SIARARISA\SOURCE\REPOS\LESSON_ENGINETEMPLATE\LESSON_ENGINETEMPLATE\DEBUG\VC141.PDB
