^C:\USERS\NIGHTSHADE\DOCUMENTS\LESSON_ENGINETEMPLATE\LESSON_ENGINETEMPLATE\GAMEOBJECT.CPP|C:\USERS\NIGHTSHADE\DOCUMENTS\LESSON_ENGINETEMPLATE\LESSON_ENGINETEMPLATE\GRAPHICS.CPP|C:\USERS\NIGHTSHADE\DOCUMENTS\LESSON_ENGINETEMPLATE\LESSON_ENGINETEMPLATE\MAIN.CPP|C:\USERS\NIGHTSHADE\DOCUMENTS\LESSON_ENGINETEMPLATE\LESSON_ENGINETEMPLATE\MYGAMEENGINE.CPP|C:\USERS\NIGHTSHADE\DOCUMENTS\LESSON_ENGINETEMPLATE\LESSON_ENGINETEMPLATE\VECTOR3.CPP
C:\USERS\NIGHTSHADE\DOCUMENTS\LESSON_ENGINETEMPLATE\LESSON_ENGINETEMPLATE\X64\DEBUG\VC142.PDB
C:\USERS\NIGHTSHADE\DOCUMENTS\LESSON_ENGINETEMPLATE\LESSON_ENGINETEMPLATE\X64\DEBUG\VC142.IDB
C:\USERS\NIGHTSHADE\DOCUMENTS\LESSON_ENGINETEMPLATE\LESSON_ENGINETEMPLATE\X64\DEBUG\VECTOR3.OBJ
C:\USERS\NIGHTSHADE\DOCUMENTS\LESSON_ENGINETEMPLATE\LESSON_ENGINETEMPLATE\X64\DEBUG\MYGAMEENGINE.OBJ
C:\USERS\NIGHTSHADE\DOCUMENTS\LESSON_ENGINETEMPLATE\LESSON_ENGINETEMPLATE\X64\DEBUG\MAIN.OBJ
C:\USERS\NIGHTSHADE\DOCUMENTS\LESSON_ENGINETEMPLATE\LESSON_ENGINETEMPLATE\X64\DEBUG\GRAPHICS.OBJ
C:\USERS\NIGHTSHADE\DOCUMENTS\LESSON_ENGINETEMPLATE\LESSON_ENGINETEMPLATE\X64\DEBUG\GAMEOBJECT.OBJ
^C:\USERS\NIGHTSHADE\DOCUMENTS\LESSON_ENGINETEMPLATE\LESSON_ENGINETEMPLATE\VECTOR3.CPP
C:\USERS\NIGHTSHADE\DOCUMENTS\LESSON_ENGINETEMPLATE\LESSON_ENGINETEMPLATE\X64\DEBUG\VC142.PDB
^C:\USERS\NIGHTSHADE\DOCUMENTS\LESSON_ENGINETEMPLATE\LESSON_ENGINETEMPLATE\GRAPHICS.CPP|C:\USERS\NIGHTSHADE\DOCUMENTS\LESSON_ENGINETEMPLATE\LESSON_ENGINETEMPLATE\MAIN.CPP|C:\USERS\NIGHTSHADE\DOCUMENTS\LESSON_ENGINETEMPLATE\LESSON_ENGINETEMPLATE\MYGAMEENGINE.CPP
C:\USERS\NIGHTSHADE\DOCUMENTS\LESSON_ENGINETEMPLATE\LESSON_ENGINETEMPLATE\X64\DEBUG\VC142.PDB
C:\USERS\NIGHTSHADE\DOCUMENTS\LESSON_ENGINETEMPLATE\LESSON_ENGINETEMPLATE\X64\DEBUG\VC142.IDB
C:\USERS\NIGHTSHADE\DOCUMENTS\LESSON_ENGINETEMPLATE\LESSON_ENGINETEMPLATE\X64\DEBUG\MYGAMEENGINE.OBJ
C:\USERS\NIGHTSHADE\DOCUMENTS\LESSON_ENGINETEMPLATE\LESSON_ENGINETEMPLATE\X64\DEBUG\MAIN.OBJ
C:\USERS\NIGHTSHADE\DOCUMENTS\LESSON_ENGINETEMPLATE\LESSON_ENGINETEMPLATE\X64\DEBUG\GRAPHICS.OBJ
^C:\USERS\NIGHTSHADE\DOCUMENTS\LESSON_ENGINETEMPLATE\LESSON_ENGINETEMPLATE\GAMEOBJECT.CPP|C:\USERS\NIGHTSHADE\DOCUMENTS\LESSON_ENGINETEMPLATE\LESSON_ENGINETEMPLATE\GRAPHICS.CPP|C:\USERS\NIGHTSHADE\DOCUMENTS\LESSON_ENGINETEMPLATE\LESSON_ENGINETEMPLATE\MAIN.CPP|C:\USERS\NIGHTSHADE\DOCUMENTS\LESSON_ENGINETEMPLATE\LESSON_ENGINETEMPLATE\MYGAMEENGINE.CPP
C:\USERS\NIGHTSHADE\DOCUMENTS\LESSON_ENGINETEMPLATE\LESSON_ENGINETEMPLATE\X64\DEBUG\VC142.PDB
C:\USERS\NIGHTSHADE\DOCUMENTS\LESSON_ENGINETEMPLATE\LESSON_ENGINETEMPLATE\X64\DEBUG\VC142.IDB
C:\USERS\NIGHTSHADE\DOCUMENTS\LESSON_ENGINETEMPLATE\LESSON_ENGINETEMPLATE\X64\DEBUG\MYGAMEENGINE.OBJ
C:\USERS\NIGHTSHADE\DOCUMENTS\LESSON_ENGINETEMPLATE\LESSON_ENGINETEMPLATE\X64\DEBUG\GRAPHICS.OBJ
C:\USERS\NIGHTSHADE\DOCUMENTS\LESSON_ENGINETEMPLATE\LESSON_ENGINETEMPLATE\X64\DEBUG\MAIN.OBJ
^C:\USERS\NIGHTSHADE\DOCUMENTS\LESSON_ENGINETEMPLATE\LESSON_ENGINETEMPLATE\MAIN.CPP
C:\USERS\NIGHTSHADE\DOCUMENTS\LESSON_ENGINETEMPLATE\LESSON_ENGINETEMPLATE\X64\DEBUG\MAIN.OBJ
^C:\USERS\NIGHTSHADE\DOCUMENTS\LESSON_ENGINETEMPLATE\LESSON_ENGINETEMPLATE\GAMEOBJECT.CPP|C:\USERS\NIGHTSHADE\DOCUMENTS\LESSON_ENGINETEMPLATE\LESSON_ENGINETEMPLATE\GRAPHICS.CPP|C:\USERS\NIGHTSHADE\DOCUMENTS\LESSON_ENGINETEMPLATE\LESSON_ENGINETEMPLATE\MYGAMEENGINE.CPP
C:\USERS\NIGHTSHADE\DOCUMENTS\LESSON_ENGINETEMPLATE\LESSON_ENGINETEMPLATE\X64\DEBUG\VC142.PDB
C:\USERS\NIGHTSHADE\DOCUMENTS\LESSON_ENGINETEMPLATE\LESSON_ENGINETEMPLATE\X64\DEBUG\VC142.IDB
C:\USERS\NIGHTSHADE\DOCUMENTS\LESSON_ENGINETEMPLATE\LESSON_ENGINETEMPLATE\X64\DEBUG\MYGAMEENGINE.OBJ
C:\USERS\NIGHTSHADE\DOCUMENTS\LESSON_ENGINETEMPLATE\LESSON_ENGINETEMPLATE\X64\DEBUG\GRAPHICS.OBJ
C:\USERS\NIGHTSHADE\DOCUMENTS\LESSON_ENGINETEMPLATE\LESSON_ENGINETEMPLATE\X64\DEBUG\GAMEOBJECT.OBJ
^C:\USERS\NIGHTSHADE\DOCUMENTS\LESSON_ENGINETEMPLATE\LESSON_ENGINETEMPLATE\GAMEOBJECT.CPP
C:\USERS\NIGHTSHADE\DOCUMENTS\LESSON_ENGINETEMPLATE\LESSON_ENGINETEMPLATE\X64\DEBUG\VC142.PDB
^C:\USERS\NIGHTSHADE\DOCUMENTS\LESSON_ENGINETEMPLATE\LESSON_ENGINETEMPLATE\GRAPHICS.CPP
C:\USERS\NIGHTSHADE\DOCUMENTS\LESSON_ENGINETEMPLATE\LESSON_ENGINETEMPLATE\X64\DEBUG\VC142.PDB
^C:\USERS\NIGHTSHADE\DOCUMENTS\LESSON_ENGINETEMPLATE\LESSON_ENGINETEMPLATE\MYGAMEENGINE.CPP
C:\USERS\NIGHTSHADE\DOCUMENTS\LESSON_ENGINETEMPLATE\LESSON_ENGINETEMPLATE\X64\DEBUG\VC142.PDB
