﻿  Main.cpp
  Vector3.cpp
  gameObject.cpp
  graphics.cpp
  mygameengine.cpp
  Generating Code...
  Lesson_EngineTemplate.vcxproj -> C:\Users\Siararisa\source\repos\Lesson_EngineTemplate\Debug\Lesson_EngineTemplate.exe
